{
  "title": "[vaultbeat] core requests",
  "visState": "{\"title\":\"[vault] core requests\",\"type\":\"metric\",\"params\":{\"addTooltip\":true,\"addLegend\":false,\"type\":\"gauge\",\"gauge\":{\"verticalSplit\":false,\"autoExtend\":false,\"percentageMode\":false,\"gaugeType\":\"Metric\",\"gaugeStyle\":\"Full\",\"backStyle\":\"Full\",\"orientation\":\"vertical\",\"colorSchema\":\"Green to Red\",\"gaugeColorMode\":\"None\",\"useRange\":false,\"colorsRange\":[{\"from\":0,\"to\":100}],\"invertColors\":false,\"labels\":{\"show\":false,\"color\":\"black\"},\"scale\":{\"show\":false,\"labels\":false,\"color\":\"#333\",\"width\":2},\"type\":\"simple\",\"style\":{\"fontSize\":\"36\",\"bgColor\":false,\"labelColor\":false,\"subText\":\"\",\"bgFill\":\"\"}}},\"aggs\":[{\"id\":\"1\",\"enabled\":true,\"type\":\"avg\",\"schema\":\"metric\",\"params\":{\"field\":\"vault.statsd.core.handle_request.mean\",\"customLabel\":\"avg_core_requests_handled\"}}],\"listeners\":{}}",
  "uiStateJSON": "{\n  \"vis\": {\n    \"defaultColors\": {\n      \"0 - 100\": \"rgb(0,104,55)\"\n    }\n  }\n}",
  "description": "",
  "version": 1,
  "kibanaSavedObjectMeta": {
    "searchSourceJSON": "{\"index\":\"vaultbeat-*\",\"query\":{\"match_all\":{}},\"filter\":[]}"
  }
}