{
  "title": "[vaultbeat] token lookup mean",
  "visState": "{\"title\":\"[vault] token lookup mean\",\"type\":\"gauge\",\"params\":{\"addLegend\":true,\"addTooltip\":true,\"gauge\":{\"backStyle\":\"Full\",\"colorSchema\":\"Green to Red\",\"colorsRange\":[{\"from\":0,\"to\":2},{\"from\":2,\"to\":5},{\"from\":5,\"to\":10}],\"extendRange\":true,\"gaugeColorMode\":\"Labels\",\"gaugeStyle\":\"Full\",\"gaugeType\":\"Arc\",\"invertColors\":false,\"labels\":{\"color\":\"black\",\"show\":false},\"orientation\":\"vertical\",\"percentageMode\":false,\"scale\":{\"color\":\"#333\",\"labels\":false,\"show\":true},\"style\":{\"bgColor\":false,\"bgFill\":\"#eee\",\"bgMask\":false,\"bgWidth\":0.9,\"fontSize\":60,\"labelColor\":true,\"mask\":false,\"maskBars\":50,\"subText\":\"\",\"width\":0.9},\"type\":\"meter\",\"verticalSplit\":false},\"type\":\"gauge\"},\"aggs\":[{\"id\":\"1\",\"enabled\":true,\"type\":\"avg\",\"schema\":\"metric\",\"params\":{\"field\":\"vault.statsd.token.lookup.mean\",\"customLabel\":\"time\"}}],\"listeners\":{}}",
  "uiStateJSON": "{\n  \"vis\": {\n    \"defaultColors\": {\n      \"0 - 2\": \"rgb(0,104,55)\",\n      \"2 - 5\": \"rgb(255,255,190)\",\n      \"5 - 10\": \"rgb(165,0,38)\"\n    },\n    \"legendOpen\": false\n  }\n}",
  "description": "",
  "version": 1,
  "kibanaSavedObjectMeta": {
    "searchSourceJSON": "{\"index\":\"vaultbeat-*\",\"query\":{\"match_all\":{}},\"filter\":[]}"
  }
}