{
  "title": "[vaultbeat] Overview",
  "hits": 0,
  "description": "",
  "panelsJSON": "[\n  {\n    \"col\": 1,\n    \"id\": \"AWGgAdO8nlkV2xdNJ7BH\",\n    \"panelIndex\": 1,\n    \"row\": 1,\n    \"size_x\": 6,\n    \"size_y\": 2,\n    \"type\": \"visualization\"\n  },\n  {\n    \"col\": 7,\n    \"id\": \"AWGgB1Q7nlkV2xdNMMT1\",\n    \"panelIndex\": 3,\n    \"row\": 3,\n    \"size_x\": 6,\n    \"size_y\": 2,\n    \"type\": \"visualization\"\n  },\n  {\n    \"col\": 7,\n    \"id\": \"AWGguWe3nlkV2xdNmlLc\",\n    \"panelIndex\": 4,\n    \"row\": 1,\n    \"size_x\": 6,\n    \"size_y\": 2,\n    \"type\": \"visualization\"\n  },\n  {\n    \"col\": 7,\n    \"id\": \"AWGgyhuznlkV2xdNt0cM\",\n    \"panelIndex\": 5,\n    \"row\": 5,\n    \"size_x\": 6,\n    \"size_y\": 2,\n    \"type\": \"visualization\"\n  },\n  {\n    \"col\": 1,\n    \"id\": \"AWGgzY0onlkV2xdNvFn-\",\n    \"panelIndex\": 6,\n    \"row\": 5,\n    \"size_x\": 6,\n    \"size_y\": 2,\n    \"type\": \"visualization\"\n  },\n  {\n    \"col\": 1,\n    \"id\": \"AWGprT31nlkV2xdNnUzJ\",\n    \"panelIndex\": 9,\n    \"row\": 3,\n    \"size_x\": 6,\n    \"size_y\": 2,\n    \"type\": \"visualization\"\n  },\n  {\n    \"col\": 1,\n    \"id\": \"AWGprT31nlkV2xdNnUzJ\",\n    \"panelIndex\": 10,\n    \"row\": 7,\n    \"size_x\": 6,\n    \"size_y\": 3,\n    \"type\": \"visualization\"\n  },\n  {\n    \"col\": 7,\n    \"id\": \"AWGpvnvcnlkV2xdNtZLs\",\n    \"panelIndex\": 11,\n    \"row\": 7,\n    \"size_x\": 6,\n    \"size_y\": 3,\n    \"type\": \"visualization\"\n  }\n]",
  "optionsJSON": "{\n  \"darkTheme\": false\n}",
  "uiStateJSON": "{\n  \"P-1\": {\n    \"vis\": {\n      \"legendOpen\": false\n    }\n  },\n  \"P-5\": {\n    \"vis\": {\n      \"defaultColors\": {\n        \"0 - 100\": \"rgb(0,104,55)\"\n      }\n    }\n  },\n  \"P-6\": {\n    \"vis\": {\n      \"colors\": {\n        \"leases\": \"#7EB26D\"\n      },\n      \"legendOpen\": false\n    }\n  },\n  \"P-9\": {\n    \"vis\": {\n      \"legendOpen\": false\n    }\n  },\n  \"P-11\": {\n    \"vis\": {\n      \"defaultColors\": {\n        \"0 - 2\": \"rgb(0,104,55)\",\n        \"2 - 5\": \"rgb(255,255,190)\",\n        \"5 - 10\": \"rgb(165,0,38)\"\n      }\n    }\n  }\n}",
  "version": 1,
  "timeRestore": false,
  "kibanaSavedObjectMeta": {
    "searchSourceJSON": "{\"filter\":[{\"query\":{\"match_all\":{}}}],\"highlightAll\":true,\"version\":true}"
  }
}