{
    "@timestamp":"2016-05-23T08:05:34.853Z",
    "beat":{
        "hostname":"beathost",
        "name":"beathost"
    },
    "metricset":{
        "host":"localhost",
        "module":"vault",
        "name":"sys_health",
        "rtt":44269
    },
    "vault":{
        "sys_health":{
            "example": "sys_health"
        }
    },
    "type":"metricsets"
}
